{
  "page": 1,
  "total_results": 10964,
  "total_pages": 549,
  "results": [
      {
          "vote_count": 66,
          "id": 22293,
          "video": false,
          "vote_average": 2,
          "title": "Manos: The Hands of Fate",
          "popularity": 4.584942,
          "poster_path": "/nraR3JdJ2PVUblPrAWh0BPwwPyo.jpg",
          "original_language": "en",
          "original_title": "Manos: The Hands of Fate",
          "genre_ids": [
              27
          ],
          "backdrop_path": "/zi8ENvqacZFZtuT4mXraTCbg2BC.jpg",
          "adult": false,
          "overview": "A family gets lost on the road and stumbles upon a hidden, underground, devil-worshiping cult led by the fearsome Master and his servant Torgo.",
          "release_date": "1966-11-15"
      },
      {
          "vote_count": 101,
          "id": 40016,
          "video": false,
          "vote_average": 2.1,
          "title": "Birdemic: Shock and Terror",
          "popularity": 9.969638,
          "poster_path": "/vYGp5RtaLKxKO8RNeyHZUIdOi5r.jpg",
          "original_language": "en",
          "original_title": "Birdemic: Shock and Terror",
          "genre_ids": [
              27,
              878
          ],
          "backdrop_path": "/w4mtrrGASEnHWsGQmE1K0UxHFQb.jpg",
          "adult": false,
          "overview": "A platoon of eagles and vultures attacks the residents of a small town. Many people die. It's not known what caused the flying menace to attack. Two people manage to fight back, but will they survive Birdemic?",
          "release_date": "2010-02-27"
      },
      {
          "vote_count": 65,
          "id": 15338,
          "video": false,
          "vote_average": 2.6,
          "title": "Ace Ventura Jr: Pet Detective",
          "popularity": 5.446219,
          "poster_path": "/7PO7jnvjwjS33Gt2lqh4HAMhmPY.jpg",
          "original_language": "en",
          "original_title": "Ace Ventura Jr: Pet Detective",
          "genre_ids": [
              35,
              10751
          ],
          "backdrop_path": "/3PTJ2vJQtzqVosCXEPqhHHRa0uS.jpg",
          "adult": false,
          "overview": "\"I will try to be normal\" 12-year-old Ace Ventura Jr. promises. Thats cool, except whats normal for him is finding missing mutts, kidnapped kitties or gone gators and creating hilarious chaos every step of the way.",
          "release_date": "2009-03-03"
      },
      {
          "vote_count": 67,
          "id": 76994,
          "video": false,
          "vote_average": 2.7,
          "title": "Box Office 3D - Il film dei film",
          "popularity": 4.234043,
          "poster_path": "/5AfGaCDmE6uefXDAa4KV5s7KIOQ.jpg",
          "original_language": "it",
          "original_title": "Box Office 3D - Il film dei film",
          "genre_ids": [
              35
          ],
          "backdrop_path": "/qSHIZgFHOWiBTfu3CYchSqbwm3b.jpg",
          "adult": false,
          "overview": "An Italian parody of the biggest U.S. blockbusters such as \"Gladiator, \" \"Harry Potter\", \"Fast and Furious\" and \"The Da Vinci Code.",
          "release_date": "2011-01-01"
      },
      {
          "vote_count": 644,
          "id": 14164,
          "video": false,
          "vote_average": 2.7,
          "title": "Dragonball Evolution",
          "popularity": 6.957519,
          "poster_path": "/yERkcVylXAcTCi8f0qrba4rmWwg.jpg",
          "original_language": "en",
          "original_title": "Dragonball Evolution",
          "genre_ids": [
              28,
              12,
              14,
              878,
              53
          ],
          "backdrop_path": "/whfRBkEMlY3wdRsMNv9hDz5afJu.jpg",
          "adult": false,
          "overview": "The young warrior Son Goku sets out on a quest, racing against time and the vengeful King Piccolo, to collect a set of seven magical orbs that will grant their wielder unlimited power.",
          "release_date": "2009-04-01"
      },
      {
          "vote_count": 57,
          "id": 219814,
          "video": false,
          "vote_average": 2.8,
          "title": "The Hot Nights of Linda",
          "popularity": 4.5119,
          "poster_path": "/e1CikDtm5axXLuaW1NLMukkGNRb.jpg",
          "original_language": "fr",
          "original_title": "Les nuits brûlantes de Linda",
          "genre_ids": [
              18
          ],
          "backdrop_path": "/yZWs3BG6efQsjRQqEFMBwgfW0M6.jpg",
          "adult": false,
          "overview": "A young woman is hired to care for an elderly man who lives on an island off the Greek coast. When she arrives there the man warns her that his daughters are evil and dangerous. The woman discovers that one of the daughters is a crazed nymphomaniac who pursues, and seduces, everyone in the house, including her crippled sister.",
          "release_date": "1975-07-16"
      },
      {
          "vote_count": 125,
          "id": 11059,
          "video": false,
          "vote_average": 2.8,
          "title": "House of the Dead",
          "popularity": 11.457421,
          "poster_path": "/4Z1m6Q5n5GqZB3FcZqdZjPTl0vk.jpg",
          "original_language": "en",
          "original_title": "House of the Dead",
          "genre_ids": [
              27,
              28,
              53
          ],
          "backdrop_path": "/oCY9Y21Oe6HPfqo4bc51iVOr3rF.jpg",
          "adult": false,
          "overview": "Set on an island off the coast, a techno rave party attracts a diverse group of college coeds and a Coast Guard officer. Soon, they discover that their X-laced escapades are to be interrupted by zombies and monsters that attack them on the ground, from the air, and in the sea, ruled by an evil entity in the House of the Dead... Prequel to the House of the Dead video games.",
          "release_date": "2003-04-11"
      },
      {
          "vote_count": 99,
          "id": 368596,
          "video": false,
          "vote_average": 2.8,
          "title": "Back in the Day",
          "popularity": 5.401056,
          "poster_path": "/is6QqgiPQlI3Wmk0bovqUFKM56B.jpg",
          "original_language": "en",
          "original_title": "Back in the Day",
          "genre_ids": [
              18
          ],
          "backdrop_path": "/yySmUG29VgDdCROb9eer9L2kkKX.jpg",
          "adult": false,
          "overview": "A young boxer is taken under the wing of a mob boss after his mother dies and his father is run out of town for being an abusive alcoholic.",
          "release_date": "2016-05-20"
      },
      {
          "vote_count": 60,
          "id": 39522,
          "video": false,
          "vote_average": 2.9,
          "title": "Mega Piranha",
          "popularity": 4.297882,
          "poster_path": "/f7jol00uMdExQWVKY7buBZOiL41.jpg",
          "original_language": "en",
          "original_title": "Mega Piranha",
          "genre_ids": [
              28,
              12,
              27,
              878
          ],
          "backdrop_path": "/fNSxch9HXdUK2YnMnjhPsXkozBJ.jpg",
          "adult": false,
          "overview": "When a science experiment goes horribly wrong, gigantic fish gain appetites for human flesh.",
          "release_date": "2010-04-10"
      },
      {
          "vote_count": 298,
          "id": 5491,
          "video": false,
          "vote_average": 2.9,
          "title": "Battlefield Earth",
          "popularity": 11.55121,
          "poster_path": "/neMUscYddxr4cP8wnRHRMLcWS0A.jpg",
          "original_language": "en",
          "original_title": "Battlefield Earth",
          "genre_ids": [
              28,
              878,
              10752
          ],
          "backdrop_path": "/rwGraYoF5i9NIcbQMBxh7UTAi2z.jpg",
          "adult": false,
          "overview": "In the year 3000, man is no match for the Psychlos, a greedy, manipulative race of aliens on a quest for ultimate profit. Led by the powerful Terl, the Psychlos are stripping Earth clean of its natural resources, using the broken remnants of humanity as slaves. What is left of the human race has descended into a near primitive state. After being captured, it is up to Tyler to save mankind.",
          "release_date": "2000-05-10"
      },
      {
          "vote_count": 76,
          "id": 63315,
          "video": false,
          "vote_average": 2.9,
          "title": "The Hottie & The Nottie",
          "popularity": 5.263388,
          "poster_path": "/qdyOwL8czGHJhjQniBKJtgmtRd9.jpg",
          "original_language": "en",
          "original_title": "The Hottie & The Nottie",
          "genre_ids": [
              35,
              10749
          ],
          "backdrop_path": "/eD5bbltt7NHfMnASZGAV1mCgNEd.jpg",
          "adult": false,
          "overview": "Nate moves to L.A. to track down Cristabel, the woman he's been in love with since childhood, only to discover that his plan to woo her only has one hurdle to overcome: what to do with June, Cristabel's ever-present, not-so-hot best friend? What's even more complicating is Nate's growing feelings for June, whose true beauty starts to emerge.",
          "release_date": "2008-02-08"
      },
      {
          "vote_count": 55,
          "id": 16456,
          "video": false,
          "vote_average": 2.9,
          "title": "The Crow IV: Wicked Prayer",
          "popularity": 5.855322,
          "poster_path": "/1AYc6lZqLp75CqMUlWRHRzF0Dgr.jpg",
          "original_language": "en",
          "original_title": "The Crow IV: Wicked Prayer",
          "genre_ids": [
              28,
              27,
              53
          ],
          "backdrop_path": "/brC3EsRzyt0478vuBzFWz6gNkjR.jpg",
          "adult": false,
          "overview": "Jimmy Cuervo is a down-on-his-luck ex-con living in a polluted mining town on a reservation that would run him out of town if not for the remainder of his probation. With his time nearly finished, he plans to start a new life with his girlfriend Lily , and leave the town for good. But Luc Crash and Lola Byrne head up a local gang of local Satanists who murder Jimmy and Lily in a brutal ritual.",
          "release_date": "2005-05-13"
      },
      {
          "vote_count": 54,
          "id": 146631,
          "video": false,
          "vote_average": 3,
          "title": "U.F.O.",
          "popularity": 4.139971,
          "poster_path": "/emWUgzFKmyAYki4zNKQILnZ5cmf.jpg",
          "original_language": "en",
          "original_title": "U.F.O.",
          "genre_ids": [
              28,
              12,
              878
          ],
          "backdrop_path": "/sNetEA7PZCuC8MBORNm9B8CHUwX.jpg",
          "adult": false,
          "overview": "A group of friends awake one morning to find all electricity and power shut off and an immense alien aircraft hovering in the air above their heads. Suddenly this regular group of friends is battling to survive as the entire human race is threatened by the alien army hovering ominously above.",
          "release_date": "2012-12-15"
      },
      {
          "vote_count": 57,
          "id": 271826,
          "video": false,
          "vote_average": 3,
          "title": "An Eye for Beauty",
          "popularity": 4.96717,
          "poster_path": "/62PVBV9RZwLpGDK2IHwM32Zz25M.jpg",
          "original_language": "fr",
          "original_title": "Le Règne de la beauté",
          "genre_ids": [
              18
          ],
          "backdrop_path": "/a2uPh4GLzlFMerGkVNFAHjCw2DX.jpg",
          "adult": false,
          "overview": "An architect and his wife see their relationship challenged.",
          "release_date": "2014-05-15"
      },
      {
          "vote_count": 71,
          "id": 70584,
          "video": false,
          "vote_average": 3,
          "title": "Hellraiser: Revelations",
          "popularity": 6.525152,
          "poster_path": "/iRvm4Ql8BsYHcEWuq9y0REuFRY8.jpg",
          "original_language": "en",
          "original_title": "Hellraiser: Revelations",
          "genre_ids": [
              27
          ],
          "backdrop_path": "/lUJTk3RPJtWbKHhOMIAprCDZxg1.jpg",
          "adult": false,
          "overview": "Two friends in Mexico discover the Lament Configuration and unleash Pinhead, but one decides to try to survive by swapping himself with someone else. Once they go missing, family members go in search of them, but find Pinhead instead.",
          "release_date": "2011-10-18"
      },
      {
          "vote_count": 324,
          "id": 13805,
          "video": false,
          "vote_average": 3.1,
          "title": "Disaster Movie",
          "popularity": 8.619452,
          "poster_path": "/6xBrOsf8RtHem3diXDGFsiKltYz.jpg",
          "original_language": "en",
          "original_title": "Disaster Movie",
          "genre_ids": [
              28,
              35
          ],
          "backdrop_path": "/rskyc6jadodyM1619SE7TIVdSYB.jpg",
          "adult": false,
          "overview": "In DISASTER MOVIE, the filmmaking team behind the hits \"Scary Movie,\" \"Date Movie,\" \"Epic Movie\" and \"Meet The Spartans\" this time puts its unique, inimitable stamp on one of the biggest and most bloated movie genres of all time -- the disaster film.",
          "release_date": "2008-08-29"
      },
      {
          "vote_count": 117,
          "id": 74849,
          "video": false,
          "vote_average": 3.1,
          "title": "The Star Wars Holiday Special",
          "popularity": 9.423487,
          "poster_path": "/3MsSWyFFWGNOneSfLv4Qtw8xThg.jpg",
          "original_language": "en",
          "original_title": "The Star Wars Holiday Special",
          "genre_ids": [
              12,
              35,
              10751,
              878,
              10770
          ],
          "backdrop_path": "/ie6u0zegHcVJEtHSpYn0KgEogrD.jpg",
          "adult": false,
          "overview": "Luke Skywalker and Han Solo battle evil Imperial forces to help Chewbacca reach his imperiled family on the Wookiee planet - in time for Life Day, their most important day of the year!",
          "release_date": "1978-12-01"
      },
      {
          "vote_count": 200,
          "id": 12142,
          "video": false,
          "vote_average": 3.1,
          "title": "Alone in the Dark",
          "popularity": 8.005826,
          "poster_path": "/3HsprIjUEwYfnlEf7jumGm037Bk.jpg",
          "original_language": "en",
          "original_title": "Alone in the Dark",
          "genre_ids": [
              28,
              14,
              27,
              53
          ],
          "backdrop_path": "/jQEHbhmgaeQ7IwR2TUBONkVfnBx.jpg",
          "adult": false,
          "overview": "Edward Carnby is a private investigator specializing in unexplainable supernatural phenomena. His cases delve into the dark corners of the world, searching for truth in the occult remnants of ancient civilizations. Now, the greatest mystery of his past is about to become the most dangerous case he has ever faced.",
          "release_date": "2005-01-28"
      },
      {
          "vote_count": 424,
          "id": 9760,
          "video": false,
          "vote_average": 3.2,
          "title": "Epic Movie",
          "popularity": 7.467427,
          "poster_path": "/b4iOOIzR19TnqtUEetXBFxJ54YV.jpg",
          "original_language": "en",
          "original_title": "Epic Movie",
          "genre_ids": [
              28,
              12,
              35
          ],
          "backdrop_path": "/6tgfgAuWNhxkzrzLcLqMwbo967n.jpg",
          "adult": false,
          "overview": "When Edward, Peter, Lucy and Susan each follow their own path, they end up finding themselves at Willy's Chocolate factory. Walking through a wardrobe, they discover the world of Gnarnia, which is ruled by the White Bitch. Meeting up with characters such as Harry Potter and Captain Jack Swallows, the newly reunited family must team up with Aslo, a wise-but-horny lion to stop the white bitch's army",
          "release_date": "2007-01-25"
      },
      {
          "vote_count": 84,
          "id": 7916,
          "video": false,
          "vote_average": 3.2,
          "title": "Far Cry",
          "popularity": 7.259278,
          "poster_path": "/AcpGZ7KLWcXDR6CPfr68YldAz4u.jpg",
          "original_language": "en",
          "original_title": "Far Cry",
          "genre_ids": [
              28,
              878,
              53
          ],
          "backdrop_path": "/t6m2ETLcHXlv1OfAjwdMjOysYbJ.jpg",
          "adult": false,
          "overview": "Jack Carver, a former member of the Special Forces takes the journalist Valerie Cardinal to an Island to visit her uncle Max who is working in a Military complex on the Island. As they arrive Valerie gets captured by the minions of Doctor Krüger. After the destruction of his boat Jack finds out about the true purpose of the Facilities on the Island, which is the creation of genetic soldiers.",
          "release_date": "2008-01-01"
      }
  ]
}